NASCAR Race Data • nascaR.data
…
Kyle Busch
# A tibble: 3 × 8
  Series  Seasons `Career Races`  Wins `Best Finish` `Avg Finish` `Laps Raced` `Laps Led`
  <chr>     <int>          <int> <dbl>         <int>        <dbl>        <int>      <int>
1 Cup          21            696    61             1         14         188962      18918
2 Truck        22            175    66             1          6.5        25233       8050
3 Xfinity      21            367   102             1          9          65550      20129

# Season results across all series
get_driver_info("Kyle Busch", type = "season")

Kyle Busch
# A tibble: 64 × 8
# Groups:   Series [3]
   Series Season Races  Wins `Best Finish` `Avg Finish` `Laps Raced` `Laps Led`
   <chr>   <int> <int> <dbl>         <int>        <dbl>        <int>      <int>
 1 Cup      2004     6     0            24         35.2         1098          0
 2 Cup      2005    34     2             1         20.4         9590        365
 3 Cup      2006    34     1             1         14.9         9807        543
 4 Cup      2007    35     1             1         13.9        10014        636
 5 Cup      2008    35     8             1         12.3        10046       1673
 6 Cup      2009    35     4             1         15.6        10005       1156
 7 Cup      2010    34     3             1         13.5        10365       1270
 8 Cup      2011    34     4             1         12.7         9563       1439
 9 Cup      2012    35     1             1         13.5         9577       1245
10 Cup      2013    34     4             1         12.9         9803       1227
# ℹ 54 more rows
# ℹ Use `print(n = ...)` to see more rows
…
