Get NASCAR driver statistics — get_driver_info • nascaR.data
…
# Get Cup series statistics only
get_driver_info("Kyle Busch", series = "cup")
#> Kyle Busch
#> # A tibble: 1 × 8
#>   Series Seasons `Career Races`  Wins `Best Finish` `Avg Finish` `Laps Raced`
#>   <chr>    <int>          <int> <dbl>         <int>        <dbl>        <int>
#> 1 Cup         21            696    61             1           14       188962
#> # ℹ 1 more variable: `Laps Led` <int>

# Get season-by-season breakdown for Truck series
get_driver_info("Kyle Busch", series = "truck", type = "season")
#> Kyle Busch
#> # A tibble: 22 × 8
#> # Groups:   Series [1]
#>    Series Season Races  Wins `Best Finish` `Avg Finish` `Laps Raced` `Laps Led`
#>    <chr>   <int> <int> <dbl>         <int>        <dbl>        <int>      <int>
#>  1 Truck    2001     6     0             9         19.2          866         17
#>  2 Truck    2004     1     0            11         11            200          0
#>  3 Truck    2005    11     3             1          6.5         1785        243
#>  4 Truck    2006     7     1             1          5.3         1232        227
#>  5 Truck    2007    11     2             1         13.7         1523        320
#>  6 Truck    2008    18     3             1          6.6         2787        756
#>  7 Truck    2009    15     7             1          4.3         2296        868
#>  8 Truck    2010    16     8             1          4           2416       1076
#>  9 Truck    2011    16     6             1          7.9         2085        703
#> 10 Truck    2012     3     0             2          2.7          417        120
#> # ℹ 12 more rows
…
