Get NASCAR manufacturer statistics — get_manufacturer_info • nascaR.data
…
# Get Cup series statistics only
get_manufacturer_info("Ford", series = "cup")
#> Ford
#> # A tibble: 1 × 8
#>   Series Seasons Races  Wins `Best Finish` `Avg Finish` `Laps Raced` `Laps Led`
#>   <chr>    <int> <int> <dbl>         <int>        <dbl>        <int>      <int>
#> 1 Cup         76 29332   726             1         19.3      6895782     202384

# Get season-by-season breakdown for Truck series
get_manufacturer_info("Chevrolet", series = "truck", type = "season")
#> Chevrolet
#> # A tibble: 30 × 8
#> # Groups:   Series [1]
#>    Series Season Races  Wins `Best Finish` `Avg Finish` `Laps Raced` `Laps Led`
#>    <chr>   <int> <int> <dbl>         <int>        <dbl>        <int>      <int>
#>  1 Truck    1995    20    16             1         15.8        40023       2312
#>  2 Truck    1996    24    18             1         17.1        60898       3442
#>  3 Truck    1997    26    16             1         17.6        67104       3184
#>  4 Truck    1998    27    15             1         17.4        67177       2352
#>  5 Truck    1999    25     9             1         19.6        50312       1797
#>  6 Truck    2000    24     6             1         19.2        53290       1026
#>  7 Truck    2001    24     7             1         18.9        66671       1643
#>  8 Truck    2002    22    11             1         19.3        52397       1251
#>  9 Truck    2003    25     6             1         19.8        51300        824
#> 10 Truck    2004    24     6             1         19.4        46640       1257
#> # ℹ 20 more rows
…
