…
# Season-by-season Cup data
get_team_info(
  "Joe Gibbs Racing",
  series = "cup",
  type = "season"
)
#> Team: Joe Gibbs Racing
#> # A tibble: 34 × 9
#>    Series Season Races `# of Drivers`  Wins `Best Finish` `Avg Finish`
#>    <chr>   <int> <int>          <int> <dbl>         <int>        <dbl>
#>  1 Cup      1992    28              1     0             2         17.8
#>  2 Cup      1993    29              1     1             1         12.4
#>  3 Cup      1994    28              1     1             1         18.7
#>  4 Cup      1995    28              1     3             1         16.3
#>  5 Cup      1996    27              1     1             1         17.4
#>  6 Cup      1997    31              1     1             1         13.7
#>  7 Cup      1998    32              1     2             1         14.2
#>  8 Cup      1999    34              2     8             1          9.6
#>  9 Cup      2000    34              2    10             1          9.9
#> 10 Cup      2001    36              2     5             1         13.3
#> # ℹ 24 more rows
#> # ℹ 2 more variables: `Laps Raced` <int>, `Laps Led` <int>
…
