…
``` r
cup_series |>
  filter(Team == "Joe Gibbs Racing", Season >= 2000) |>
  group_by(Season, Make) |>
  summarize(
    races = n(),
    wins = sum(Win, na.rm = TRUE),
    avg_finish = round(mean(Finish, na.rm = TRUE), 1),
    .groups = "drop"
  ) |>
  select(Season, Make, races, wins, avg_finish)
```

    ## # A tibble: 27 × 5
    ##    Season Make      races  wins avg_finish
    ##     <int> <chr>     <int> <dbl>      <dbl>
    ##  1   2000 Pontiac      68    10        9.9
    ##  2   2001 Pontiac      72     5       13.3
    ##  3   2002 Pontiac      72     4       16.2
    ##  4   2003 Chevrolet    73     4       15.5
    ##  5   2004 Chevrolet    77     2       15.1
    ##  6   2005 Chevrolet   107     5       19.3
    ##  7   2006 Chevrolet   108     7       17.1
    ##  8   2007 Chevrolet   109     4       16.8
    ##  9   2008 Toyota      109    10       14.5
    ## 10   2009 Toyota      111     9       16.5
    ## # ℹ 17 more rows
…
